{
	"cards": [
		{
			"top": "Сказочное заморское яство",
			"title": "Нямушка",
			"consist": "с фуа-гра",
			"portions": "<b>10</b> порций<br>мышь в подарок",
			"img": "/static/img/cat.png",
			"weight": "0,5",
			"bottom": "Чего сидишь? Порадуй котэ, ",
			"bottomActive": "Печень утки разварная с артишоками.",
			"bottomDisable": "Печалька, с фуа-гра закончился.",
			"active": 0,
			"disable": 0
		},
		{
			"top": "Сказочное заморское яство",
			"title": "Нямушка",
			"consist": "с рыбой",
			"portions": "<b>40</b> порций<br><b>2</b> мыши в подарок<br>",
			"img": "/static/img/cat.png",
			"weight": "2",
			"bottom": "Чего сидишь? Порадуй котэ, ",
			"bottomActive": "Головы щучьи с чесноком да свежайшая сёмгушка.",
			"bottomDisable": "Печалька, с рыбой закончился.",
			"active": 1,
			"disable": 0
		},
		{
			"top": "Сказочное заморское яство",
			"title": "Нямушка",
			"consist": "с курой",
			"portions": "<b>100</b> порций<br><b>5</b> мышей в подарок<br>заказчик доволен",
			"img": "/static/img/cat.png",
			"weight": "5",
			"bottom": "Чего сидишь? Порадуй котэ, ",
			"bottomActive": "Филе из цыплят с трюфелями в бульоне.",
			"bottomDisable": "Печалька, с курой закончился.",
			"active": 0,
			"disable": 1
		}
	]
}